version = "1"
tags = {
	"Graphics"
	"Species"
}
name = $ModName$
supported_version = "3.0.3"
#path = "/path/to/this/mod/$ModName$" #You have to fill this in for $ModName$.mod, but can leave this alone for $ModName$/descriptor.mod